group_class;class_clean;n_cases;lines;original_classes
;pt_cash_for_work;8;1/3/6/7/19/30/68/127;cash-for-work
cash transfers;pt_conditional_cash_transfers;13;5/9/25/26/36/56/67/71/97/109/111/116/117;conditional cash transfers
in-kind transfers;pt_conditional_in_kind_transfers;3;12/13/75;conditional in-kind transfers
;pt_educational_fee_waivers;5;10/24/47/99/59;educational fee waivers/Educational fee waivers 
social health protection;pt_health_care_benefits;7;46/59/60/65/73/24/129;health care benefits
;pt_housing_benefits;6;32/51/58/125/89/107;housing benefits/housing benefits 
social health protection;pt_non_contributory_health_insurance;9;31/40/53/74/110/119/2/3/115;non-contributory health insurance
in-kind transfers;pt_school_feeding_programme;11;11/21/28/49/57/72/90/92/112/118/107;school feeding programme/school feeding programme 
;pt_subsidies;15;14/18/22/29/35/48/54/61/63/69/78/89/96/120/126;subsidies/Subsidies
;pt_training;1;100;training 
cash transfers;pt_unconditional_cash_transfers;53;2/4/8/15/16/17/20/27/34/37/38/39/41/43/45/50/55/62/64/70/76/77/79/80/81/82/83/84/85/86/87/88/91/93/94/95/98/100/103/104/106/107/108/113/114/115/121/122/123/124/128/26/71;unconditional cash transfers
in-kind transfers;pt_unconditional_in_kind_transfers;15;23/33/42/44/52/66/101/102/105/129/77/88/107/108/59;unconditional in-kind transfers
